ActsPixelClusterizationAlg                                        INFO Clusterization statistics
|----------|------------|
| RDOs     |    3423993 |
| Clusters |    1165578 |
|----------|------------|
ActsStripClusterizationAlg                                        INFO Clusterization statistics
|----------|------------|
| RDOs     |    1345365 |
| Clusters |    1081478 |
|----------|------------|
ActsPixelSpacePointFormationAlg                                   INFO Space Point Formation statistics
|--------------|------------|
| Clusters     |    1165578 |
| Space Points |    1165578 |
|--------------|------------|
ActsStripSpacePointFormationAlg                                   INFO Space Point Formation statistics
|----------------------|------------|
| Clusters             |    1081478 |
| Space Points         |     325456 |
| Overlap Space Points |      94491 |
|----------------------|------------|
ActsPixelSeedingAlg                                               INFO Seed statistics
|---------------------|------------|
| Spacepoints         |    1165578 |
| Seeds               |     123544 |
| No track parameters |          0 |
|---------------------|------------|
ActsStripSeedingAlg                                               INFO Seed statistics
|---------------------|------------|
| Spacepoints         |     419947 |
| Seeds               |      24791 |
| No track parameters |          0 |
|---------------------|------------|
ActsTrackFindingAlg                                               INFO statistics
|-----------------------------------|------------|------------|------------|
|                           All eta | PPP        | SSS        | ALL        |
|-----------------------------------|------------|------------|------------|
| Input seeds                       |     123544 |      24791 |     148335 |
| No track parameters               |          0 |          0 |          0 |
| Used   seeds                      |      77796 |      15305 |      93101 |
| Cannot find track                 |      64124 |      13680 |      77804 |
| Duplicate seeds                   |      45748 |       9486 |      55234 |
| CKF tracks                        |      13672 |       1625 |      15297 |
| Rejected refined parameters       |          0 |          0 |          0 |
| selected tracks                   |      12951 |        501 |      13452 |
| Stopped tracks reaching max holes |      62005 |      14949 |      76954 |
| Seeds with more than one branch   |          0 |          0 |          0 |
| Tracks failing second CKF         |       7734 |       1486 |       9220 |
| Stopped tracks below pT cut       |       3509 |        216 |       3725 |
| Stopped tracks above max eta      |         14 |          0 |         14 |
|-----------------------------------|------------|------------|------------|
ActsTrackFindingAlg                                               INFO Ratios
|------------------------------------------|------------|------------|------------|
|                                          | PPP        | SSS        | ALL        |
|------------------------------------------|------------|------------|------------|
| failed / seeds                           |   0.519038 |   0.551813 |   0.524515 |
| duplication / seeds                      |   0.370297 |   0.382639 |    0.37236 |
| Rejected refined params / seeds          |          0 |          0 |          0 |
| selected / CKF tracks                    |   0.947264 |   0.308308 |   0.879388 |
| selected tracks / used seeds             |   0.166474 |  0.0327344 |   0.144488 |
| branched tracks / used seeds             |          0 |          0 |          0 |
| no 2nd CKF / CKF tracks                  |   0.565682 |   0.914462 |   0.602733 |
|------------------------------------------|------------|------------|------------|
| selected / CKF tracks           0.0- 0.5 |   0.998133 |  0.0398406 |   0.816188 |
|                                 0.5- 1.0 |   0.999195 |   0.133144 |   0.807523 |
|                                 1.0- 1.5 |     0.9933 |   0.127273 |   0.831178 |
|                                 1.5- 2.0 |   0.992537 |   0.632075 |   0.923402 |
|                                 2.0- 2.5 |   0.989198 |   0.487119 |   0.898777 |
|                                 2.5- 3.0 |    0.82716 |          0 |   0.826851 |
|                                 3.0- 3.5 |   0.913784 |          0 |   0.913784 |
|                                 3.5-+inf |   0.979666 |          0 |   0.979666 |
|------------------------------------------|------------|------------|------------|
ActsConversionStripSeedingAlg                                     INFO Seed statistics
|---------------------|------------|
| Spacepoints         |       4503 |
| Seeds               |         43 |
| No track parameters |          0 |
|---------------------|------------|
ActsConversionTrackFindingAlg                                     INFO statistics
|-----------------------------------|------------|------------|
|                           All eta | SSS        | ALL        |
|-----------------------------------|------------|------------|
| Input seeds                       |         43 |         43 |
| No track parameters               |          0 |          0 |
| Used   seeds                      |         43 |         43 |
| Cannot find track                 |         43 |         43 |
| Duplicate seeds                   |          0 |          0 |
| CKF tracks                        |          0 |          0 |
| Rejected refined parameters       |          0 |          0 |
| selected tracks                   |          0 |          0 |
| Stopped tracks reaching max holes |         39 |         39 |
| Seeds with more than one branch   |          0 |          0 |
| Tracks failing second CKF         |          0 |          0 |
| Stopped tracks below pT cut       |          4 |          4 |
| Stopped tracks above max eta      |          0 |          0 |
|-----------------------------------|------------|------------|
ActsConversionTrackFindingAlg                                     INFO Ratios
|------------------------------------------|------------|------------|
|                                          | SSS        | ALL        |
|------------------------------------------|------------|------------|
| failed / seeds                           |          1 |          1 |
| duplication / seeds                      |          0 |          0 |
| Rejected refined params / seeds          |          0 |          0 |
| selected / CKF tracks                    |          0 |          0 |
| selected tracks / used seeds             |          0 |          0 |
| branched tracks / used seeds             |          0 |          0 |
| no 2nd CKF / CKF tracks                  |          0 |          0 |
|------------------------------------------|------------|------------|
| selected / CKF tracks           0.0- 0.5 |          0 |          0 |
|                                 0.5- 1.0 |          0 |          0 |
|                                 1.0- 1.5 |          0 |          0 |
|                                 1.5- 2.0 |          0 |          0 |
|                                 2.0- 2.5 |          0 |          0 |
|                                 2.5- 3.0 |          0 |          0 |
|                                 3.0- 3.5 |          0 |          0 |
|                                 3.5-+inf |          0 |          0 |
|------------------------------------------|------------|------------|
